{
    "anikkhan16": {
        "reason": "FARM",
        "notes": "Multiple intro posts using different accounts"
    },
    "akomo": {
        "reason": "PLG",
        "notes": "Posts plagiarized content"
    },
    "nilakash001": {
        "reason": "PLG",
        "notes": "Posts plagiarized"
    },
    "desiremi": {
        "reason": "PLG",
        "notes": "Posts plagiarized content"
    },
    "excite": {
        "reason": "PLG",
        "notes": "Posts plagiarized photos"
    },
    "thompson2": {
        "reason": "PLG",
        "notes": "Posts plagiarized sports content while in position of curator for blurtsports"
    },
    "trabenjoy": {
        "reason": "FARM",
        "notes": "Farming content"
    },
    "wasif33": {
        "reason": "FARM",
        "notes": "Farming content"
    },
    "khadija196": {
        "reason": "FARM",
        "notes": "Farming content"
    },
    "srcaptain": {
        "reason": "CPC",
        "notes": "Copy paste content to farm blurtbd curation"
    },
    "dilshan77": {
        "reason": "CPC",
        "notes": "Copy paste content to farm blurtbd curation"
    },
    "bulet07": {
        "reason": "CPC",
        "notes": "Copy paste content to farm blurtbd curation"
    },
    "hmsamimhossien": {
        "reason": "CPC",
        "notes": "Copy paste content to farm blurtbd curation"
    },
    "mahabul19": {
        "reason": "CPC",
        "notes": "Copy paste content to farm blurtbd curation"
    },
    "jaazman": {
        "reason": "CPC",
        "notes": "Copy paste content to farm blurtbd curation"
    },
    "roky77": {
        "reason": "CPC",
        "notes": "Copy paste content to farm blurtbd curation"
    },
    "israteva": {
        "reason": "FARM",
        "notes": "Copy paste content to farm blurtbd curation"
    },
    "banglatech": {
        "reason": "FARM",
        "notes": "Copy paste content to farm blurtbd curation"
    },
    "aishanoor": {
        "reason": "FARM",
        "notes": "Copy paste content to farm blurtbd curation"
    },
    "mcanzee": {
        "reason": "FARM",
        "notes": "Copy paste content to farm blurtbd curation"
    },
    "meherun": {
        "reason": "FARM",
        "notes": "Copy paste content to farm blurtbd curation"
    },
    "stoinis": {
        "reason": "FARM",
        "notes": "Copy paste content to farm blurtbd curation"
    },
    "unkarando": {
        "reason": "FARM",
        "notes": "Copy paste content to farm blurtbd curation"
    },
    "sujonkhan": {
        "reason": "FAKE",
        "notes": "Two intro posts authored, one male one female"
    },
    "sanny2": {
        "reason": "FAKE",
        "notes": "Two intro posts authored, one male one female"
    },
    "naharkhatun": {
        "reason": "FAKE",
        "notes": "Two intro posts authored, one male one female"
    },
    "zaforkhan": {
        "reason": "FAKE",
        "notes": "Two intro posts authored, one male one female"
    },
    "sujonkhansr": {
        "reason": "FAKE",
        "notes": "Two intro posts authored, one male one female"
    },
    "shahinalom1": {
        "reason": "PLG",
        "notes": "Posts plagiarized content"
    },
    "ukohita": {
        "reason": "PLG",
        "notes": "Posts plagiarized content"
    },
    "cryptobdnews": {
        "reason": "PLG",
        "notes": "Posts plagiarized content"
    },
    "yeasinarafat": {
        "reason": "PLG",
        "notes": "Posts plagiarized content"
    },
    "oyindamola1": {
        "reason": "PLG",
        "notes": "Posts plagiarized content"
    },
    "miakiron": {
        "reason": "PLG",
        "notes": "Posts plagiarized content"
    },
    "sormi1": {
        "reason": "PLG",
        "notes": "Posts plagiarized content"
    },
    "sormi": {
        "reason": "FAKE",
        "notes": "Multiple copy paste intro posts authored"
    },
    "sorbonna": {
        "reason": "FAKE",
        "notes": "Multiple copy paste intro posts authored"
    },
    "minniroy": {
        "reason": "FAKE",
        "notes": "Multiple copy paste intro posts authored"
    },
    "somaiy": {
        "reason": "FAKE",
        "notes": "Fake intro post, farming BlurtBD curation"
    },
    "nhmehedi": {
        "reason": "FAKE",
        "notes": "Fake intro post, farming BlurtBD curation"
    },
    "shojolparvej": {
        "reason": "FAKE",
        "notes": "Fake intro post, farming BlurtBD curation"
    },
    "shaikotsarowar": {
        "reason": "FAKE",
        "notes": "Fake intro post, farming BlurtBD curation"
    },
    "sojibkhan74": {
        "reason": "FAKE",
        "notes": "Fake intro post, farming BlurtBD curation"
    },
    "tusharimran": {
        "reason": "FAKE",
        "notes": "Fake intro post, farming BlurtBD curation"
    },
    "jaberhossain": {
        "reason": "FAKE",
        "notes": "Fake intro post, farming BlurtBD curation"
    },
    "jiashik": {
        "reason": "FAKE",
        "notes": "Fake intro post, farming BlurtBD curation"
    },
    "emonnaim01": {
        "reason": "FAKE",
        "notes": "Fake intro post, farming BlurtBD curation"
    },
    "alizafatima99": {
        "reason": "FAKE",
        "notes": "Fake intro post, farming BlurtBD curation"
    },
    "ninkaporizkova": {
        "reason": "FAKE",
        "notes": "Fake intro post, farming BlurtBD curation"
    },
    "saeidaffran": {
        "reason": "FAKE",
        "notes": "Fake intro post, farming BlurtBD curation"
    },
    "periods": {
        "reason": "FAKE",
        "notes": "Fake intro post, farming BlurtBD curation"
    },
    "kamrulnahar": {
        "reason": "FAKE",
        "notes": "Fake intro post, farming BlurtBD curation"
    },
    "khadija1": {
        "reason": "FAKE",
        "notes": "Fake intro post, farming BlurtBD curation"
    },
    "trisan": {
        "reason": "PLG",
        "notes": "Plagurized content"
    },
    "robinazad": {
        "reason": "FAKE",
        "notes": "Fake intro post, farming BlurtBD curation"
    },
    "mdhakim": {
        "reason": "FAKE",
        "notes": "Fake intro post, farming BlurtBD curation"
    },
    "ahbijoy": {
        "reason": "FAKE",
        "notes": "Fake intro post, farming BlurtBD curation"
    },
    "marianomariano": {
        "reason": "PLG",
        "notes": "Plagiarized content"
    },
    "khadijamim": {
        "reason": "FAKE",
        "notes": "Fake intro post, farming BlurtBD curation"
    },
    "shahanaj1": {
        "reason": "FAKE",
        "notes": "Fake intro post, farming BlurtBD curation"
    },
    "ashaduzzaman": {
        "reason": "FAKE",
        "notes": "Fake intro post multiple accounts"
    },
    "actionmirk": {
        "reason": "FAKE",
        "notes": "Identity Theft"
    },
    "cshin": {
        "reason": "FAKE",
        "notes": "Identity Theft"
    },
    "cryptonewslife": {
        "reason": "PLG",
        "notes": "Plagiarism"
    },
    "tenki": {
        "reason": "FAKE",
        "notes": "Identity Theft"
    },
    "zengchihang": {
        "reason": "FAKE",
        "notes": "Identity Theft"
    },
    "esthefanychacin": {
        "reason": "FAKE",
        "notes": "Identity Theft"
    },
    "ssnam90": {
        "reason": "FAKE",
        "notes": "Identity Theft"
    },
    "nibirprodhan": {
        "reason": "PLG",
        "notes": "Plagiarism"
    },
    "bunmiola": {
        "reason": "PLG",
        "notes": "Plagiarism"
    },
    "dejoke": {
        "reason": "PLG",
        "notes": "Plagiarism"
    },
    "sohelkhan": {
        "reason": "PLG",
        "notes": "Plagiarism"
    },
    "soltana": {
        "reason": "PLG",
        "notes": "Plagiarism"
    },
    "voaman": {
        "reason": "PLG",
        "notes": "Plagiarism"
    },
    "socialreformer": {
        "reason": "PLG",
        "notes": "Plagiarism"
    },
    "steemyoda": {
        "reason": "PLG",
        "notes": "Plagiarism"
    },
    "eykel": {
        "reason": "FAKE",
        "notes": "fake intro+Plagiarism"
    },
    "zanjo": {
        "reason": "FAKE",
        "notes": "fake intro+Plagiarism"
    },
     "friedmen": {
        "reason": "FAKE",
        "notes": "fake intro+Plagiarism"
    },
    "jahnlight": {
        "reason": "FAKE",
        "notes": "fake intro+Plagiarism"
    },
    "barrydavid": {
        "reason": "FAKE",
        "notes": "fake intro+Plagiarism"
    },
    "somon1": {
        "reason": "PLG",
        "notes": "Plagiarism"
    },
    "rjsharif": {
        "reason": "PLG",
        "notes": "Plagiarism"
    },
    "emmanewby": {
        "reason": "FAKE",
        "notes": "fake intro+Plagiarism"
    },
    "moriam001": {
        "reason": "PLG",
        "notes": "Posts plagiarized articles."
    },
    "sormiakter": {
        "reason": "PLG",
        "notes": "Posts plagiarized articles."
    },
    "jiashik93": {
        "reason": "PLG",
        "notes": "Posts plagiarized articles."
    },
    "monika1798": {
        "reason": "PLG",
        "notes": "Posts plagiarized articles."
    },
    "rabby1": {
        "reason": "PLG",
        "notes": "Posts plagiarized articles."
    },
     "srsr": {
        "reason": "PLG",
        "notes": "Posts plagiarized articles."
    },
     "suyouty": {
        "reason": "PLG",
        "notes": "Posts plagiarized articles."
    },
     "cariglee": {
        "reason": "PLG",
        "notes": "Posts plagiarized articles."
    },
     "mad2": {
        "reason": "FAKE",
        "notes": "fake intro+Plagiarism."
    },
      "does": {
        "reason": "FAKE",
        "notes": "fake intro+Plagiarism."
    },
    "ridoykhan22": {
        "reason": "PLG",
        "notes": "Posts plagiarized articles."
    },
    "anan111": {
        "reason": "PLG",
        "notes": "Posts plagiarized articles."
    },
    "paced": {
        "reason": "FAKE",
        "notes": "fake intro+Plagiarism."
    },
    "sanjim": {
        "reason": "PLG",
        "notes": "Posts plagiarized articles."
    },
    "kanekiuchiha": {
        "reason": "PLG",
        "notes": "Posts plagiarized articles."
    },
    "terrychow": {
        "reason": "PLG",
        "notes": "Posts plagiarized articles."
    },
    "beauty50": {
        "reason": "PLG",
        "notes": "Posts plagiarized articles."
    },
    "chilong": {
        "reason": "FAKE",
        "notes": "fake account."
    },
    "kimwangg": {
        "reason": "FAKE",
        "notes": "fake account."
    },
    "pedrom": {
        "reason": "FAKE",
        "notes": "fake account."
    },
    "pokash": {
        "reason": "FAKE",
        "notes": "fake account."
    },
    "mohonn": {
        "reason": "FAKE",
        "notes": "fake account."
    },
    "pipepilong": {
        "reason": "FAKE",
        "notes": "fake account."
    },
    "pisawong": {
        "reason": "FAKE",
        "notes": "fake account."
    },
    "zhangsongg": {
        "reason": "FAKE",
        "notes": "fake account."
    },
    "uncommonriad": {
        "reason": "FAKE",
        "notes": "fake intro+Plagiarism."
    },
    "imisstheoldkanye": {
        "reason": "VOTE FARMING",
        "notes": "Comments vote farming."
    },
    "jahidulleon": {
        "reason": "PLG",
        "notes": "Posts plagiarized articles."
    },
    "rkking": {
        "reason": "PLG",
        "notes": "Posts plagiarized articles."
    },
    "monowar": {
        "reason": "STOLEN CONTENT",
        "notes": "stolen content of freakeao."
    },
    "angelpori": {
        "reason": "STOLEN CONTENT",
        "notes": "stolen content of somyasingh."
    },
    "photographyvote": {
        "reason": "STOLEN CONTENT",
        "notes": "stolen content of somyasingh."
    },
    "lovele": {
        "reason": "PLG",
        "notes": "Stole posts from Steem/Hive user."
    },
    "sanaulbd": {
        "reason": "PLG",
        "notes": "Stole posts from blurt user."
    },
    "correyatson": {
        "reason": "PLG",
        "notes": "Posts plagiarized articles."
    },
    "rakshanralm": {
        "reason": "PLG",
        "notes": "Posts plagiarized articles."
    },
    "sojon": {
        "reason": "PLG",
        "notes": "Posts plagiarized articles."
    },
    "steemgif": {
      "reason": "VOTE FARMING",
      "notes": "Vote farming."
    },
    "mdamirhossain": {
      "reason": "PLG",
      "notes": "Posts plagiarized articles."  
    },
    "soniy": {
      "reason": "PLG",
      "notes": "Posts plagiarized articles." 
    },
    "srovi": {
      "reason": "PLG",
      "notes": "Posts plagiarized articles."
    },
    "yums99": {
      "reason": "PLG",
      "notes": "Posts plagiarized articles."  
    },
    "mandipkour": {
      "reason": "FARM",
      "notes": "Single user, Multiple accounts, farming blurtech topic."  
    },
    "sams2xv": {
      "reason": "FARM",
      "notes": "Single user, Multiple accounts, farming blurtech topic."  
    },
    "koushikmondal": {
      "reason": "FARM",
      "notes": "Single user, Multiple accounts, farming blurtech topic."  
    },
    "rakelrm": {
      "reason": "FARM",
      "notes": "Single user, Multiple accounts, farming blurtech topic."  
    },
    "fsc69": {
      "reason": "FARM",
      "notes": "Single user, Multiple accounts, farming blurtech topic."
    },
    "shovon71": {
      "reason": "FARM",
      "notes": "Single user, Multiple accounts, farming blurtech topic."
    },
    "sazzad7137": {
      "reason": "FARM",
      "notes": "Single user, Multiple accounts, farming blurtech topic."    
    },
    "namid": {
      "reason": "FARM",
      "notes": "Single user, Multiple accounts, farming blurtcomics topic."    
    },
    "edselsalbana": {
      "reason": "FARM",
      "notes": "Single user, Multiple accounts, farming blurtcomics topic."    
    },
    "junayeed": {
      "reason": "FARM",
      "notes": "Single user, Multiple accounts, farming blurtcomics topic."    
    },
    "maisdipoto": {
      "reason": "FARM",
      "notes": "Single user, Multiple accounts, farming blurtcomics topic."    
    },
    "rafeed": {
      "reason": "FARM",
      "notes": "Single user, Multiple accounts, farming blurtcomics topic."    
    },
    "maheshkhali": {
      "reason": "FARM",
      "notes": "Single user, Multiple accounts, farming blurtcomics topic."    
    },
    "naturalbd": {
      "reason": "FARM",
      "notes": "Single user, Multiple accounts, farming blurtcomics topic."    
    },
    "chanlin": {
      "reason": "FARM",
      "notes": "Single user, Multiple accounts, farming blurtcomics topic."    
    },
    "suzieky": {
      "reason": "FARM",
      "notes": "Single user, Multiple accounts, farming blurtcomics topic."    
    },
    "jrnadif": {
      "reason": "FARM",
      "notes": "Single user, Multiple accounts, farming blurtcomics topic."    
    },
    "tushikhan": {
      "reason": "FARM",
      "notes": "Single user, Multiple accounts, farming blurtcomics topic."
    },
    "nazmul82": {
      "reason": "PLG",
      "notes": "Posts plagiarized articles."
    },
    "esanaroy": {
      "reason": "PLG",
      "notes": "Posts plagiarized articles." 
    },
    "wasifmaoun": {
      "reason": "PLG",
      "notes": "Posts plagiarized articles."
    },
    "susanyim": {
      "reason": "PLG",
      "notes": "Posts plagiarized articles."
    },
    "kanghyuk": {
      "reason": "PLG",
      "notes": "Posts plagiarized articles."
    },
    "sweetprity": {
      "reason": "PLG",
      "notes": "Posts plagiarized articles."
    },
    "riyann": {
      "reason": "PLG",
      "notes": "Posts plagiarized articles."
    },   
    "travelr78": {
      "reason": "PLG",
      "notes": "Posts plagiarized articles."  
    },  
    "fundaccount-1": {
      "reason": "SPAMMER",
      "notes": "Comment spammer"  
    },  
    "crystalliu": {
      "reason": "SPAMMER",
      "notes": "Posts Spammer" 
    },   
    "kushum0001": {
      "reason": "PLG",
      "notes": "Posts plagiarized articles." 
    },   
    "hanufa0001": {
      "reason": "PLG",
      "notes": "Posts plagiarized articles."      
    },
    "sonea-nakamaru": {
      "reason": "FAKE",
      "notes": "Impersonates another person (instagram: mikanaka9999)."      
    },
    "caihong": {
      "reason": "FAKE",
      "notes": "Impersonates another person (instagram: t40533)"
    }
}
